%YAML 1.1
%TAG !u! tag:unity3d.com,2011:
--- !u!114 &11400000
MonoBehaviour:
  m_ObjectHideFlags: 0
  m_PrefabParentObject: {fileID: 0}
  m_PrefabInternal: {fileID: 0}
  m_GameObject: {fileID: 0}
  m_Enabled: 0
  m_EditorHideFlags: 0
  m_Script: {fileID: 11500000, guid: efcdc4f16c266d6419b75d220501be49, type: 3}
  m_Name: 018_SellTowerMedium
  m_EditorClassIdentifier: 
  onEquipAbility: {fileID: 0}
  _cat: 0
  _idNum: 18
  cardName: Sell Tower Medium
  cardDescription: Increase tower selling value by 20%
  cardHp: 1
  cardDmg: 1
  cardSpd: 1
  scrapCostMod: 1
  upgradeCostMod: 1
  scoreMod: 1
  attackRangeMod: 1
  coolDownMod: 1
  charges: 1
  coolDownSpeed: 0
