# 3ds Max Wavefront OBJ Exporter v0.97b - (c)2007 guruware
# File Created: 27.03.2018 15:58:25

newmtl wire_008061138
	Ns 32
	d 1
	Tr 0
	Tf 1 1 1
	illum 2
	Ka 0.0314 0.2392 0.5412
	Kd 0.0314 0.2392 0.5412
	Ks 0.3500 0.3500 0.3500
